<?xml version="1.0" encoding="utf-8"?>
<!-- Generator: Adobe Illustrator 19.0.0, SVG Export Plug-In . SVG Version: 6.00 Build 0)  -->
<svg version="1.1" id="Outline_Icons" xmlns="http://www.w3.org/2000/svg" xmlns:xlink="http://www.w3.org/1999/xlink" x="0px"
	 y="0px" viewBox="-298 93 15 15" style="enable-background:new -298 93 15 15;" xml:space="preserve">
<style type="text/css">
	.st0{fill:none;stroke:#000000;stroke-linecap:round;stroke-linejoin:round;stroke-miterlimit:10;vector-effect:non-scaling-stroke;
}
</style>
<line class="st0" x1="-297.2" y1="99.1" x2="-290.5" y2="104.3"/>
<line class="st0" x1="-283.8" y1="99" x2="-290.5" y2="104.3"/>
</svg>
