<?xml version="1.0" encoding="utf-8"?>
<!-- Generator: Adobe Illustrator 19.1.0, SVG Export Plug-In . SVG Version: 6.00 Build 0)  -->
<!DOCTYPE svg PUBLIC "-//W3C//DTD SVG 1.1//EN" "http://www.w3.org/Graphics/SVG/1.1/DTD/svg11.dtd">
<svg version="1.1" id="Isolation_Mode" xmlns="http://www.w3.org/2000/svg" xmlns:xlink="http://www.w3.org/1999/xlink" x="0px"
	 y="0px" viewBox="0 0 24 24" enable-background="new 0 0 24 24" xml:space="preserve">
<g>
	<g>
		<path d="M7.9,13.9c-0.1,0-0.2,0-0.3-0.1L3.9,9.9H0.4C0.2,9.9,0,9.7,0,9.5v-9c0-0.2,0.2-0.4,0.4-0.4h15c0.2,0,0.4,0.2,0.4,0.4v4H15
			V0.9H0.8v8.3H4c0.1,0,0.2,0,0.3,0.1l3.2,3.3V9.5c0-0.2,0.2-0.4,0.4-0.4h2v0.8H8.3v3.6c0,0.2-0.1,0.3-0.2,0.3
			C8,13.9,7.9,13.9,7.9,13.9z"/>
		<g>
			<g>
				<polygon points="4.9,5 3.9,5 3.9,6 4.9,6 4.9,5 				"/>
			</g>
		</g>
		<g>
			<g>
				<polygon points="7.9,5 6.9,5 6.9,6 7.9,6 7.9,5 				"/>
			</g>
		</g>
		<g>
			<g>
				<polygon points="10.9,5 9.9,5 9.9,6 10.9,6 10.9,5 				"/>
			</g>
		</g>
	</g>
	<path d="M23.6,23.9h-15c-0.2,0-0.4-0.2-0.4-0.4V21c0-0.9,4.2-2.7,5.5-3.3v-1.5c-0.3-0.2-0.9-0.9-1-2.4c-0.5-0.2-0.8-0.7-0.8-1.3
		c0-0.6,0.2-1,0.6-1.2c0,0,0,0,0,0c-0.3-0.7-0.8-1.7-0.3-2.3c0.2-0.3,0.5-0.4,1-0.3c0.5-1,1.9-1.5,3.2-1.5c1.4,0,3,0.6,3.3,1.8
		c0.2,1-0.1,1.8-0.3,2.3c0.3,0.2,0.5,0.6,0.5,1.1c0,0.6-0.2,1.2-0.6,1.4c-0.1,1.5-0.6,2.2-0.9,2.4v1.5c1.3,0.5,5.5,2.3,5.5,3.3v2.5
		C24,23.7,23.8,23.9,23.6,23.9z M9,23.1h14.3V21c-0.2-0.3-2.5-1.5-5.3-2.7c-0.1-0.1-0.2-0.2-0.2-0.3v-2c0-0.2,0.1-0.3,0.2-0.4l0,0
		c0,0,0.7-0.3,0.7-2.1c0-0.2,0.2-0.4,0.4-0.4c0.1,0,0.3-0.5,0.2-0.9c-0.1-0.3-0.2-0.3-0.2-0.3c-0.2,0-0.4-0.2-0.4-0.4
		c0-0.1,0.1-0.3,0.1-0.5c0.2-0.4,0.5-1.2,0.3-1.9c-0.2-0.8-1.5-1.2-2.6-1.2s-2.4,0.4-2.6,1.2c0,0.2-0.2,0.3-0.4,0.3
		c-0.4-0.1-0.5,0-0.6,0c-0.1,0.2,0,0.7,0.4,1.5c0.1,0.3,0.2,0.4,0.2,0.6c0,0.2-0.2,0.4-0.4,0.4c-0.3,0-0.4,0.4-0.4,0.6
		s0.1,0.6,0.4,0.6c0.2,0,0.4,0.2,0.4,0.4c0,1.8,0.8,2.1,0.8,2.2c0.1,0.1,0.2,0.2,0.2,0.3v2c0,0.2-0.1,0.3-0.2,0.3
		c-2.8,1.1-5.1,2.4-5.3,2.7L9,23.1z"/>
</g>
</svg>
